…
    ## [1] 22

Before joining, salaries_survey had 1655 observations and
silicon_demographics had 22 observations.

``` r
# IDs in salaries_survey data but not silicon_demographics data
missing_IDs_salaries_survey <- salaries_survey %>%
  anti_join(silicon_demographics, by = c("employer_name" = "company"))
missing_IDs_salaries_survey
```

    ## # A tibble: 1,461 × 19
    ##    index salary_id employer_name   location_name location_state location_country
    ##    <dbl>     <dbl> <chr>           <chr>         <chr>          <chr>           
    ##  1     0         1 opower          san francisc… CA             US              
    ##  2     1         3 walmart         bentonville,… AR             US              
    ##  3     2         4 vertical knowl… cleveland, oh OH             US              
    ##  4     3         6 netapp          waltham       <NA>           <NA>            
    ##  5     5        14 casino          eastern oreg… OR             US              
    ##  6     6        16 tetra tech      madison, wi   WI             US              
    ##  7     7        17 knewton         new york city NY             US              
    ##  8     8        21 amplify         nyc           <NA>           <NA>            
    ##  9     9        23 sqor            san francisco <NA>           <NA>            
    ## 10    10        24 pensco trust c… denver, co    CO             US              
    ## # ℹ 1,451 more rows
    ## # ℹ 13 more variables: location_latitude <dbl>, location_longitude <dbl>,
    ## #   job_title <chr>, job_title_category <chr>, job_title_rank <chr>,
    ## #   total_experience_years <dbl>, employer_experience_years <dbl>,
    ## #   annual_base_pay <dbl>, signing_bonus <dbl>, annual_bonus <dbl>,
    ## #   stock_value_bonus <chr>, comments <chr>, submitted_at <chr>
…
